1,1,1,1,1,1,1,1,1,1,1,1
1,1,1,1,1,1,1,1,1,1,1,1
1,1,1,1,1,1,1,1,1,1,1,1
74438,74438,74438,74438,74438,74438,74438,74438,74438,74438,74438,74438
74438,74438,74438,74438,74438,74438,74438,74438,74438,74438,74438,74438
74438,74438,74438,74438,74438,74438,74438,74438,74438,74438,74438,74438
1,1,1,1,1,1,1,1,1,1,1,1
1,1,1,1,1,1,1,1,1,1,1,1
1,1,1,1,1,1,1,1,1,1,1,1
1,1,1,1,1,1,1,1,1,1,1,1
74438,74438,74438,74438,74438,74438,74438,74438,74438,74438,74438,74438
