A,B,C,Rebound effect (%)
TOU,Consumption as usual,kg CO2 eq,3.723480057
TOU,Consumption as usual,kg CO2 eq,3.336568689
TOU,Consumption as usual,kg CO2 eq,3.419971231
TOU,Consumption as usual,kg CO2 eq,3.331375768
TOU,Consumption as usual,kg CO2 eq,3.685388731
TOU,Consumption as usual,kg CO2 eq,3.96725687
TOU,Consumption as usual,kg CO2 eq,3.670368679
TOU,Consumption as usual,kg CO2 eq,3.693318419
TOU,Consumption as usual,kg CO2 eq,3.902643461
TOU,Consumption as usual,kg CO2 eq,3.927287662
TOU,Consumption as usual,kg CO2 eq,3.9603279
TOU,Consumption as usual,kg CO2 eq,4.123978687
TOU,Consumption as usual,kg CO2 eq,4.513819879
TOU,Consumption as usual,kg CO2 eq,4.057263176
TOU,Consumption as usual,kg CO2 eq,3.778062182
TOU,Consumption as usual,kg CO2 eq,4.642510516
TOU,Consumption as usual,kg CO2 eq,4.059399077
TOU,Consumption as usual,kg CO2 eq,3.773582556
TOU,Consumption as usual,kg CO2 eq,3.613746352
TOU,Consumption as usual,kg CO2 eq,3.23195454
TOU,Consumption as usual,kg CO2 eq,3.372365339
TOU,Consumption as usual,kg CO2 eq,3.909883224
TOU,Consumption as usual,kg CO2 eq,3.86858901
TOU,Consumption as usual,kg CO2 eq,3.93210053
TOU,Consumption as usual,kg CO2 eq,3.873074612
TOU,Consumption as usual,kg CO2 eq,3.790491817
TOU,Consumption as usual,kg CO2 eq,3.933967437
TOU,Consumption as usual,kg CO2 eq,3.524365337
TOU,Consumption as usual,kg CO2 eq,4.501730783
TOU,Consumption as usual,kg CO2 eq,4.195437719
Constant,Consumption as usual,kg CO2 eq,3.454863989
Constant,Consumption as usual,kg CO2 eq,3.325040766
Constant,Consumption as usual,kg CO2 eq,3.2090842
Constant,Consumption as usual,kg CO2 eq,3.259043887
Constant,Consumption as usual,kg CO2 eq,3.661580556
Constant,Consumption as usual,kg CO2 eq,3.142429257
Constant,Consumption as usual,kg CO2 eq,3.552504043
Constant,Consumption as usual,kg CO2 eq,2.906353813
Constant,Consumption as usual,kg CO2 eq,3.452185592
Constant,Consumption as usual,kg CO2 eq,3.989398785
Constant,Consumption as usual,kg CO2 eq,3.182429798
Constant,Consumption as usual,kg CO2 eq,3.021383859
Constant,Consumption as usual,kg CO2 eq,3.38523044
Constant,Consumption as usual,kg CO2 eq,3.410706531
Constant,Consumption as usual,kg CO2 eq,3.427656075
Constant,Consumption as usual,kg CO2 eq,3.438896481
Constant,Consumption as usual,kg CO2 eq,3.403418616
Constant,Consumption as usual,kg CO2 eq,3.355527965
Constant,Consumption as usual,kg CO2 eq,3.455532633
Constant,Consumption as usual,kg CO2 eq,3.42825805
Constant,Consumption as usual,kg CO2 eq,3.100747654
Constant,Consumption as usual,kg CO2 eq,4.008912918
Constant,Consumption as usual,kg CO2 eq,3.561495409
Constant,Consumption as usual,kg CO2 eq,3.257941297
Constant,Consumption as usual,kg CO2 eq,3.188148913
Constant,Consumption as usual,kg CO2 eq,3.765091527
Constant,Consumption as usual,kg CO2 eq,3.843706141
Constant,Consumption as usual,kg CO2 eq,3.495231011
Constant,Consumption as usual,kg CO2 eq,3.15031752
Constant,Consumption as usual,kg CO2 eq,3.260594863
TOU,Worst case,kg CO2 eq,63.98446982
TOU,Worst case,kg CO2 eq,67.00227863
TOU,Worst case,kg CO2 eq,74.64419137
TOU,Worst case,kg CO2 eq,84.55950157
TOU,Worst case,kg CO2 eq,61.65485011
TOU,Worst case,kg CO2 eq,71.49666977
TOU,Worst case,kg CO2 eq,72.23869372
TOU,Worst case,kg CO2 eq,64.09464174
TOU,Worst case,kg CO2 eq,77.96103023
TOU,Worst case,kg CO2 eq,66.92489535
TOU,Worst case,kg CO2 eq,82.86001124
TOU,Worst case,kg CO2 eq,66.54178207
TOU,Worst case,kg CO2 eq,69.15500144
TOU,Worst case,kg CO2 eq,63.87411316
TOU,Worst case,kg CO2 eq,66.67334981
TOU,Worst case,kg CO2 eq,66.29067083
TOU,Worst case,kg CO2 eq,69.39119941
TOU,Worst case,kg CO2 eq,80.17973992
TOU,Worst case,kg CO2 eq,75.59641151
TOU,Worst case,kg CO2 eq,65.31646635
TOU,Worst case,kg CO2 eq,64.28508957
TOU,Worst case,kg CO2 eq,55.63810832
TOU,Worst case,kg CO2 eq,70.19834523
TOU,Worst case,kg CO2 eq,68.46922503
TOU,Worst case,kg CO2 eq,74.40363682
TOU,Worst case,kg CO2 eq,63.58275251
TOU,Worst case,kg CO2 eq,65.6587724
TOU,Worst case,kg CO2 eq,64.17981891
TOU,Worst case,kg CO2 eq,74.40446312
TOU,Worst case,kg CO2 eq,79.08012522
Constant,Worst case,kg CO2 eq,70.77901151
Constant,Worst case,kg CO2 eq,50.37711518
Constant,Worst case,kg CO2 eq,67.4988506
Constant,Worst case,kg CO2 eq,68.5135329
Constant,Worst case,kg CO2 eq,76.78414346
Constant,Worst case,kg CO2 eq,66.99434639
Constant,Worst case,kg CO2 eq,44.25178666
Constant,Worst case,kg CO2 eq,67.86662844
Constant,Worst case,kg CO2 eq,61.75933738
Constant,Worst case,kg CO2 eq,69.99851093
Constant,Worst case,kg CO2 eq,73.04655911
Constant,Worst case,kg CO2 eq,69.32728391
Constant,Worst case,kg CO2 eq,67.54926151
Constant,Worst case,kg CO2 eq,62.11448762
Constant,Worst case,kg CO2 eq,67.85493659
Constant,Worst case,kg CO2 eq,67.74748755
Constant,Worst case,kg CO2 eq,72.51552136
Constant,Worst case,kg CO2 eq,56.6220661
Constant,Worst case,kg CO2 eq,56.28732904
Constant,Worst case,kg CO2 eq,63.81320889
Constant,Worst case,kg CO2 eq,59.84730779
Constant,Worst case,kg CO2 eq,60.42684204
Constant,Worst case,kg CO2 eq,52.30374524
Constant,Worst case,kg CO2 eq,62.24040554
Constant,Worst case,kg CO2 eq,60.59590583
Constant,Worst case,kg CO2 eq,55.77718031
Constant,Worst case,kg CO2 eq,71.29012213
Constant,Worst case,kg CO2 eq,59.0175054
Constant,Worst case,kg CO2 eq,58.49679998
Constant,Worst case,kg CO2 eq,62.48080687
TOU,Consumption as usual,CAD,21.65479863
TOU,Consumption as usual,CAD,17.60691712
TOU,Consumption as usual,CAD,19.40178503
TOU,Consumption as usual,CAD,16.35145516
TOU,Consumption as usual,CAD,17.64291229
TOU,Consumption as usual,CAD,16.87936201
TOU,Consumption as usual,CAD,17.43618641
TOU,Consumption as usual,CAD,16.87459293
TOU,Consumption as usual,CAD,18.93979356
TOU,Consumption as usual,CAD,19.09738277
TOU,Consumption as usual,CAD,21.51653867
TOU,Consumption as usual,CAD,17.25902843
TOU,Consumption as usual,CAD,17.87742218
TOU,Consumption as usual,CAD,18.54855297
TOU,Consumption as usual,CAD,16.55414903
TOU,Consumption as usual,CAD,17.74651905
TOU,Consumption as usual,CAD,19.41824422
TOU,Consumption as usual,CAD,16.81539135
TOU,Consumption as usual,CAD,17.56656091
TOU,Consumption as usual,CAD,18.45452098
TOU,Consumption as usual,CAD,18.07916644
TOU,Consumption as usual,CAD,15.64740632
TOU,Consumption as usual,CAD,16.78500633
TOU,Consumption as usual,CAD,17.95851837
TOU,Consumption as usual,CAD,17.04588843
TOU,Consumption as usual,CAD,17.79563611
TOU,Consumption as usual,CAD,15.6166154
TOU,Consumption as usual,CAD,15.84787162
TOU,Consumption as usual,CAD,16.83213659
TOU,Consumption as usual,CAD,19.65603358
Constant,Consumption as usual,CAD,9.047493942
Constant,Consumption as usual,CAD,9.126745907
Constant,Consumption as usual,CAD,9.140288072
Constant,Consumption as usual,CAD,9.124119071
Constant,Consumption as usual,CAD,9.053451689
Constant,Consumption as usual,CAD,9.092054177
Constant,Consumption as usual,CAD,9.16037191
Constant,Consumption as usual,CAD,9.314279783
Constant,Consumption as usual,CAD,9.142206374
Constant,Consumption as usual,CAD,9.249883292
Constant,Consumption as usual,CAD,9.328723514
Constant,Consumption as usual,CAD,9.100366536
Constant,Consumption as usual,CAD,9.062145102
Constant,Consumption as usual,CAD,9.005299221
Constant,Consumption as usual,CAD,9.234647832
Constant,Consumption as usual,CAD,9.186193215
Constant,Consumption as usual,CAD,9.287453332
Constant,Consumption as usual,CAD,9.215231201
Constant,Consumption as usual,CAD,9.292159204
Constant,Consumption as usual,CAD,9.062072369
Constant,Consumption as usual,CAD,9.406462442
Constant,Consumption as usual,CAD,9.257129968
Constant,Consumption as usual,CAD,9.196488333
Constant,Consumption as usual,CAD,9.136434972
Constant,Consumption as usual,CAD,9.177258487
Constant,Consumption as usual,CAD,9.154876378
Constant,Consumption as usual,CAD,9.147578911
Constant,Consumption as usual,CAD,9.223907521
Constant,Consumption as usual,CAD,9.245060074
Constant,Consumption as usual,CAD,9.314857342
TOU,Worst case,CAD,314.2692857
TOU,Worst case,CAD,310.5325651
TOU,Worst case,CAD,344.6184158
TOU,Worst case,CAD,315.5388566
TOU,Worst case,CAD,346.5878943
TOU,Worst case,CAD,305.9654589
TOU,Worst case,CAD,354.317819
TOU,Worst case,CAD,335.8650162
TOU,Worst case,CAD,417.6158578
TOU,Worst case,CAD,309.0389872
TOU,Worst case,CAD,307.7388153
TOU,Worst case,CAD,344.6838985
TOU,Worst case,CAD,291.2570404
TOU,Worst case,CAD,354.9381563
TOU,Worst case,CAD,341.4455652
TOU,Worst case,CAD,328.8830574
TOU,Worst case,CAD,301.4405489
TOU,Worst case,CAD,310.7805398
TOU,Worst case,CAD,319.2904471
TOU,Worst case,CAD,343.0212739
TOU,Worst case,CAD,342.036672
TOU,Worst case,CAD,390.9879238
TOU,Worst case,CAD,362.9130269
TOU,Worst case,CAD,311.4131188
TOU,Worst case,CAD,327.1063356
TOU,Worst case,CAD,361.3154544
TOU,Worst case,CAD,317.9664581
TOU,Worst case,CAD,397.5654716
TOU,Worst case,CAD,313.5848774
TOU,Worst case,CAD,355.1203376
Constant,Worst case,CAD,172.4957842
Constant,Worst case,CAD,172.3138886
Constant,Worst case,CAD,172.4146185
Constant,Worst case,CAD,172.9970239
Constant,Worst case,CAD,167.0535448
Constant,Worst case,CAD,170.607028
Constant,Worst case,CAD,171.6994435
Constant,Worst case,CAD,171.5614701
Constant,Worst case,CAD,171.1140697
Constant,Worst case,CAD,172.2654455
Constant,Worst case,CAD,171.5501343
Constant,Worst case,CAD,170.0072538
Constant,Worst case,CAD,169.7947041
Constant,Worst case,CAD,173.0035591
Constant,Worst case,CAD,171.8257941
Constant,Worst case,CAD,173.6590399
Constant,Worst case,CAD,169.5596194
Constant,Worst case,CAD,171.2631061
Constant,Worst case,CAD,171.2295313
Constant,Worst case,CAD,171.7396934
Constant,Worst case,CAD,172.5925517
Constant,Worst case,CAD,168.8158345
Constant,Worst case,CAD,171.0933722
Constant,Worst case,CAD,172.2997764
Constant,Worst case,CAD,167.9287824
Constant,Worst case,CAD,174.3679945
Constant,Worst case,CAD,169.8372131
Constant,Worst case,CAD,170.5746213
Constant,Worst case,CAD,169.3905335
Constant,Worst case,CAD,172.3925653
