A,B,C,Rebound effect (%)
TOU,Consumption as usual,kg $\mathregular{CO_{2}}$ eq,3.358130355
TOU,Consumption as usual,kg $\mathregular{CO_{2}}$ eq,3.175133689
TOU,Consumption as usual,kg $\mathregular{CO_{2}}$ eq,3.060438514
TOU,Consumption as usual,kg $\mathregular{CO_{2}}$ eq,3.757754487
TOU,Consumption as usual,kg $\mathregular{CO_{2}}$ eq,3.328378285
TOU,Consumption as usual,kg $\mathregular{CO_{2}}$ eq,3.770377656
TOU,Consumption as usual,kg $\mathregular{CO_{2}}$ eq,3.759246148
TOU,Consumption as usual,kg $\mathregular{CO_{2}}$ eq,3.243014671
TOU,Consumption as usual,kg $\mathregular{CO_{2}}$ eq,3.396709621
TOU,Consumption as usual,kg $\mathregular{CO_{2}}$ eq,3.275611202
TOU,Consumption as usual,kg $\mathregular{CO_{2}}$ eq,3.270023081
TOU,Consumption as usual,kg $\mathregular{CO_{2}}$ eq,3.006467922
TOU,Consumption as usual,kg $\mathregular{CO_{2}}$ eq,2.863895499
TOU,Consumption as usual,kg $\mathregular{CO_{2}}$ eq,3.346051813
TOU,Consumption as usual,kg $\mathregular{CO_{2}}$ eq,3.075875576
TOU,Consumption as usual,kg $\mathregular{CO_{2}}$ eq,4.039839172
TOU,Consumption as usual,kg $\mathregular{CO_{2}}$ eq,2.765707493
TOU,Consumption as usual,kg $\mathregular{CO_{2}}$ eq,3.623766444
TOU,Consumption as usual,kg $\mathregular{CO_{2}}$ eq,3.428702028
TOU,Consumption as usual,kg $\mathregular{CO_{2}}$ eq,3.551641014
TOU,Consumption as usual,kg $\mathregular{CO_{2}}$ eq,2.842132961
TOU,Consumption as usual,kg $\mathregular{CO_{2}}$ eq,3.112825689
TOU,Consumption as usual,kg $\mathregular{CO_{2}}$ eq,3.27587608
TOU,Consumption as usual,kg $\mathregular{CO_{2}}$ eq,3.298844707
TOU,Consumption as usual,kg $\mathregular{CO_{2}}$ eq,3.746767957
TOU,Consumption as usual,kg $\mathregular{CO_{2}}$ eq,3.614342637
TOU,Consumption as usual,kg $\mathregular{CO_{2}}$ eq,3.558497727
TOU,Consumption as usual,kg $\mathregular{CO_{2}}$ eq,2.421162463
TOU,Consumption as usual,kg $\mathregular{CO_{2}}$ eq,3.610331127
TOU,Consumption as usual,kg $\mathregular{CO_{2}}$ eq,3.236725054
Constant,Consumption as usual,kg $\mathregular{CO_{2}}$ eq,3.596279508
Constant,Consumption as usual,kg $\mathregular{CO_{2}}$ eq,3.631376675
Constant,Consumption as usual,kg $\mathregular{CO_{2}}$ eq,2.917041775
Constant,Consumption as usual,kg $\mathregular{CO_{2}}$ eq,2.983974563
Constant,Consumption as usual,kg $\mathregular{CO_{2}}$ eq,3.602347965
Constant,Consumption as usual,kg $\mathregular{CO_{2}}$ eq,2.679667733
Constant,Consumption as usual,kg $\mathregular{CO_{2}}$ eq,3.615399858
Constant,Consumption as usual,kg $\mathregular{CO_{2}}$ eq,3.010305105
Constant,Consumption as usual,kg $\mathregular{CO_{2}}$ eq,3.287159057
Constant,Consumption as usual,kg $\mathregular{CO_{2}}$ eq,3.049823991
Constant,Consumption as usual,kg $\mathregular{CO_{2}}$ eq,3.083108712
Constant,Consumption as usual,kg $\mathregular{CO_{2}}$ eq,2.53608208
Constant,Consumption as usual,kg $\mathregular{CO_{2}}$ eq,3.610377017
Constant,Consumption as usual,kg $\mathregular{CO_{2}}$ eq,2.267319504
Constant,Consumption as usual,kg $\mathregular{CO_{2}}$ eq,2.609609627
Constant,Consumption as usual,kg $\mathregular{CO_{2}}$ eq,3.009027357
Constant,Consumption as usual,kg $\mathregular{CO_{2}}$ eq,2.968024285
Constant,Consumption as usual,kg $\mathregular{CO_{2}}$ eq,3.622725761
Constant,Consumption as usual,kg $\mathregular{CO_{2}}$ eq,2.263135725
Constant,Consumption as usual,kg $\mathregular{CO_{2}}$ eq,2.851205651
Constant,Consumption as usual,kg $\mathregular{CO_{2}}$ eq,3.608700307
Constant,Consumption as usual,kg $\mathregular{CO_{2}}$ eq,3.369640265
Constant,Consumption as usual,kg $\mathregular{CO_{2}}$ eq,3.160925552
Constant,Consumption as usual,kg $\mathregular{CO_{2}}$ eq,3.234411291
Constant,Consumption as usual,kg $\mathregular{CO_{2}}$ eq,2.389198441
Constant,Consumption as usual,kg $\mathregular{CO_{2}}$ eq,2.20905297
Constant,Consumption as usual,kg $\mathregular{CO_{2}}$ eq,3.540386115
Constant,Consumption as usual,kg $\mathregular{CO_{2}}$ eq,3.108783967
Constant,Consumption as usual,kg $\mathregular{CO_{2}}$ eq,2.66347183
Constant,Consumption as usual,kg $\mathregular{CO_{2}}$ eq,2.839121734
TOU,Worst case,kg $\mathregular{CO_{2}}$ eq,59.1612646
TOU,Worst case,kg $\mathregular{CO_{2}}$ eq,59.51796212
TOU,Worst case,kg $\mathregular{CO_{2}}$ eq,55.60498826
TOU,Worst case,kg $\mathregular{CO_{2}}$ eq,66.87183304
TOU,Worst case,kg $\mathregular{CO_{2}}$ eq,76.59213677
TOU,Worst case,kg $\mathregular{CO_{2}}$ eq,62.47260814
TOU,Worst case,kg $\mathregular{CO_{2}}$ eq,63.87733915
TOU,Worst case,kg $\mathregular{CO_{2}}$ eq,72.83886829
TOU,Worst case,kg $\mathregular{CO_{2}}$ eq,64.05791511
TOU,Worst case,kg $\mathregular{CO_{2}}$ eq,66.93980647
TOU,Worst case,kg $\mathregular{CO_{2}}$ eq,71.54369021
TOU,Worst case,kg $\mathregular{CO_{2}}$ eq,68.38581319
TOU,Worst case,kg $\mathregular{CO_{2}}$ eq,58.77057039
TOU,Worst case,kg $\mathregular{CO_{2}}$ eq,73.6267891
TOU,Worst case,kg $\mathregular{CO_{2}}$ eq,62.24906858
TOU,Worst case,kg $\mathregular{CO_{2}}$ eq,62.5549307
TOU,Worst case,kg $\mathregular{CO_{2}}$ eq,61.81349688
TOU,Worst case,kg $\mathregular{CO_{2}}$ eq,48.2823233
TOU,Worst case,kg $\mathregular{CO_{2}}$ eq,60.07827764
TOU,Worst case,kg $\mathregular{CO_{2}}$ eq,75.59064225
TOU,Worst case,kg $\mathregular{CO_{2}}$ eq,60.76700482
TOU,Worst case,kg $\mathregular{CO_{2}}$ eq,56.38739285
TOU,Worst case,kg $\mathregular{CO_{2}}$ eq,58.99724989
TOU,Worst case,kg $\mathregular{CO_{2}}$ eq,60.14842528
TOU,Worst case,kg $\mathregular{CO_{2}}$ eq,59.09148448
TOU,Worst case,kg $\mathregular{CO_{2}}$ eq,50.91995033
TOU,Worst case,kg $\mathregular{CO_{2}}$ eq,63.72404099
TOU,Worst case,kg $\mathregular{CO_{2}}$ eq,69.7155026
TOU,Worst case,kg $\mathregular{CO_{2}}$ eq,55.54657414
TOU,Worst case,kg $\mathregular{CO_{2}}$ eq,53.7752772
Constant,Worst case,kg $\mathregular{CO_{2}}$ eq,56.02034389
Constant,Worst case,kg $\mathregular{CO_{2}}$ eq,67.48552352
Constant,Worst case,kg $\mathregular{CO_{2}}$ eq,56.60275606
Constant,Worst case,kg $\mathregular{CO_{2}}$ eq,61.72669373
Constant,Worst case,kg $\mathregular{CO_{2}}$ eq,60.12256281
Constant,Worst case,kg $\mathregular{CO_{2}}$ eq,56.33070047
Constant,Worst case,kg $\mathregular{CO_{2}}$ eq,46.25594771
Constant,Worst case,kg $\mathregular{CO_{2}}$ eq,50.66660377
Constant,Worst case,kg $\mathregular{CO_{2}}$ eq,51.89148733
Constant,Worst case,kg $\mathregular{CO_{2}}$ eq,68.68695188
Constant,Worst case,kg $\mathregular{CO_{2}}$ eq,67.14127263
Constant,Worst case,kg $\mathregular{CO_{2}}$ eq,68.57098859
Constant,Worst case,kg $\mathregular{CO_{2}}$ eq,64.46097298
Constant,Worst case,kg $\mathregular{CO_{2}}$ eq,59.11361524
Constant,Worst case,kg $\mathregular{CO_{2}}$ eq,48.55090869
Constant,Worst case,kg $\mathregular{CO_{2}}$ eq,44.9653075
Constant,Worst case,kg $\mathregular{CO_{2}}$ eq,60.7633836
Constant,Worst case,kg $\mathregular{CO_{2}}$ eq,59.07201212
Constant,Worst case,kg $\mathregular{CO_{2}}$ eq,64.20158255
Constant,Worst case,kg $\mathregular{CO_{2}}$ eq,51.13783967
Constant,Worst case,kg $\mathregular{CO_{2}}$ eq,60.71002827
Constant,Worst case,kg $\mathregular{CO_{2}}$ eq,55.66338529
Constant,Worst case,kg $\mathregular{CO_{2}}$ eq,62.72832522
Constant,Worst case,kg $\mathregular{CO_{2}}$ eq,58.8716145
Constant,Worst case,kg $\mathregular{CO_{2}}$ eq,56.13406251
Constant,Worst case,kg $\mathregular{CO_{2}}$ eq,66.97503468
Constant,Worst case,kg $\mathregular{CO_{2}}$ eq,68.34163384
Constant,Worst case,kg $\mathregular{CO_{2}}$ eq,47.11365832
Constant,Worst case,kg $\mathregular{CO_{2}}$ eq,58.97122218
Constant,Worst case,kg $\mathregular{CO_{2}}$ eq,51.16587811
TOU,Consumption as usual,CAD,17.82572337
TOU,Consumption as usual,CAD,27.48829723
TOU,Consumption as usual,CAD,18.05258297
TOU,Consumption as usual,CAD,18.86763202
TOU,Consumption as usual,CAD,17.94036349
TOU,Consumption as usual,CAD,18.52931128
TOU,Consumption as usual,CAD,20.1206645
TOU,Consumption as usual,CAD,16.55685441
TOU,Consumption as usual,CAD,19.59947994
TOU,Consumption as usual,CAD,16.90775908
TOU,Consumption as usual,CAD,17.33235236
TOU,Consumption as usual,CAD,16.97605834
TOU,Consumption as usual,CAD,19.03690614
TOU,Consumption as usual,CAD,19.72242502
TOU,Consumption as usual,CAD,18.59575238
TOU,Consumption as usual,CAD,21.33996587
TOU,Consumption as usual,CAD,19.44374459
TOU,Consumption as usual,CAD,18.93605269
TOU,Consumption as usual,CAD,21.10743426
TOU,Consumption as usual,CAD,21.26863876
TOU,Consumption as usual,CAD,23.06167886
TOU,Consumption as usual,CAD,22.06905246
TOU,Consumption as usual,CAD,21.73073704
TOU,Consumption as usual,CAD,19.57998018
TOU,Consumption as usual,CAD,19.80959329
TOU,Consumption as usual,CAD,22.4305747
TOU,Consumption as usual,CAD,16.28796963
TOU,Consumption as usual,CAD,18.79650369
TOU,Consumption as usual,CAD,20.63006575
TOU,Consumption as usual,CAD,20.72550174
Constant,Consumption as usual,CAD,9.263926632
Constant,Consumption as usual,CAD,9.2225873
Constant,Consumption as usual,CAD,9.208663414
Constant,Consumption as usual,CAD,9.192788087
Constant,Consumption as usual,CAD,9.216377444
Constant,Consumption as usual,CAD,9.101915452
Constant,Consumption as usual,CAD,9.309170145
Constant,Consumption as usual,CAD,9.242094945
Constant,Consumption as usual,CAD,9.10010538
Constant,Consumption as usual,CAD,8.943849662
Constant,Consumption as usual,CAD,9.15888407
Constant,Consumption as usual,CAD,9.205415414
Constant,Consumption as usual,CAD,9.108929193
Constant,Consumption as usual,CAD,9.099845782
Constant,Consumption as usual,CAD,9.198984259
Constant,Consumption as usual,CAD,9.257525283
Constant,Consumption as usual,CAD,9.193272615
Constant,Consumption as usual,CAD,9.110947261
Constant,Consumption as usual,CAD,9.327592077
Constant,Consumption as usual,CAD,9.149792407
Constant,Consumption as usual,CAD,9.18487407
Constant,Consumption as usual,CAD,9.100833761
Constant,Consumption as usual,CAD,9.156389089
Constant,Consumption as usual,CAD,9.264786489
Constant,Consumption as usual,CAD,9.204303442
Constant,Consumption as usual,CAD,9.152768612
Constant,Consumption as usual,CAD,9.210918717
Constant,Consumption as usual,CAD,9.169877732
Constant,Consumption as usual,CAD,9.282084929
Constant,Consumption as usual,CAD,9.292007246
TOU,Worst case,CAD,331.77933
TOU,Worst case,CAD,358.7307017
TOU,Worst case,CAD,394.9664931
TOU,Worst case,CAD,360.3233248
TOU,Worst case,CAD,349.6685568
TOU,Worst case,CAD,359.0639688
TOU,Worst case,CAD,370.1393579
TOU,Worst case,CAD,390.604305
TOU,Worst case,CAD,349.9985493
TOU,Worst case,CAD,460.3374665
TOU,Worst case,CAD,375.7937261
TOU,Worst case,CAD,359.5539758
TOU,Worst case,CAD,362.9666671
TOU,Worst case,CAD,406.033783
TOU,Worst case,CAD,354.5939967
TOU,Worst case,CAD,413.198726
TOU,Worst case,CAD,366.1014733
TOU,Worst case,CAD,334.9179319
TOU,Worst case,CAD,344.873039
TOU,Worst case,CAD,365.0908573
TOU,Worst case,CAD,391.2644518
TOU,Worst case,CAD,344.0621982
TOU,Worst case,CAD,339.0043563
TOU,Worst case,CAD,359.7294318
TOU,Worst case,CAD,413.7303324
TOU,Worst case,CAD,382.5346659
TOU,Worst case,CAD,331.9852211
TOU,Worst case,CAD,361.8805813
TOU,Worst case,CAD,347.5338978
TOU,Worst case,CAD,405.4027826
Constant,Worst case,CAD,168.1630176
Constant,Worst case,CAD,172.2596026
Constant,Worst case,CAD,168.9016643
Constant,Worst case,CAD,169.1087275
Constant,Worst case,CAD,168.6977771
Constant,Worst case,CAD,172.3419383
Constant,Worst case,CAD,170.3409821
Constant,Worst case,CAD,172.2079039
Constant,Worst case,CAD,167.8452596
Constant,Worst case,CAD,170.7227666
Constant,Worst case,CAD,169.6677469
Constant,Worst case,CAD,172.9475145
Constant,Worst case,CAD,170.8261597
Constant,Worst case,CAD,171.6358553
Constant,Worst case,CAD,169.1200609
Constant,Worst case,CAD,167.7252856
Constant,Worst case,CAD,170.9066061
Constant,Worst case,CAD,167.802274
Constant,Worst case,CAD,172.0305993
Constant,Worst case,CAD,171.459123
Constant,Worst case,CAD,172.5971164
Constant,Worst case,CAD,169.6227481
Constant,Worst case,CAD,171.6060961
Constant,Worst case,CAD,170.8934584
Constant,Worst case,CAD,170.009357
Constant,Worst case,CAD,170.7580898
Constant,Worst case,CAD,168.4121706
Constant,Worst case,CAD,170.3330219
Constant,Worst case,CAD,168.8250226
Constant,Worst case,CAD,170.7909887
