Load shifting metric,Economic savings reallocation,Indicator,Rebound effect (%)
kg $\mathregular{CO_{2}}$ eq without RE,Consumption as usual,Rebound effect,4.803973772
kg $\mathregular{CO_{2}}$ eq without RE,Consumption as usual,Rebound effect,4.246743954
kg $\mathregular{CO_{2}}$ eq without RE,Consumption as usual,Rebound effect,4.357187003
kg $\mathregular{CO_{2}}$ eq without RE,Consumption as usual,Rebound effect,4.225139752
kg $\mathregular{CO_{2}}$ eq without RE,Consumption as usual,Rebound effect,4.439169729
kg $\mathregular{CO_{2}}$ eq without RE,Consumption as usual,Rebound effect,4.498565384
kg $\mathregular{CO_{2}}$ eq without RE,Consumption as usual,Rebound effect,4.825072311
kg $\mathregular{CO_{2}}$ eq without RE,Consumption as usual,Rebound effect,4.821638309
kg $\mathregular{CO_{2}}$ eq without RE,Consumption as usual,Rebound effect,3.995081285
kg $\mathregular{CO_{2}}$ eq without RE,Consumption as usual,Rebound effect,4.733604757
kg $\mathregular{CO_{2}}$ eq without RE,Consumption as usual,Rebound effect,4.868555406
kg $\mathregular{CO_{2}}$ eq without RE,Consumption as usual,Rebound effect,4.870300173
kg $\mathregular{CO_{2}}$ eq without RE,Consumption as usual,Rebound effect,3.898784672
kg $\mathregular{CO_{2}}$ eq without RE,Consumption as usual,Rebound effect,4.66752103
kg $\mathregular{CO_{2}}$ eq without RE,Consumption as usual,Rebound effect,4.073619546
kg $\mathregular{CO_{2}}$ eq without RE,Consumption as usual,Rebound effect,4.890879088
kg $\mathregular{CO_{2}}$ eq without RE,Consumption as usual,Rebound effect,4.81236266
kg $\mathregular{CO_{2}}$ eq without RE,Consumption as usual,Rebound effect,4.427122414
kg $\mathregular{CO_{2}}$ eq without RE,Consumption as usual,Rebound effect,4.402958802
kg $\mathregular{CO_{2}}$ eq without RE,Consumption as usual,Rebound effect,4.635538782
kg $\mathregular{CO_{2}}$ eq without RE,Consumption as usual,Rebound effect,4.790972693
kg $\mathregular{CO_{2}}$ eq without RE,Consumption as usual,Rebound effect,5.363768128
kg $\mathregular{CO_{2}}$ eq without RE,Consumption as usual,Rebound effect,5.060529458
kg $\mathregular{CO_{2}}$ eq without RE,Consumption as usual,Rebound effect,4.629691265
kg $\mathregular{CO_{2}}$ eq without RE,Consumption as usual,Rebound effect,4.891632795
kg $\mathregular{CO_{2}}$ eq without RE,Consumption as usual,Rebound effect,5.003385401
kg $\mathregular{CO_{2}}$ eq without RE,Consumption as usual,Rebound effect,5.161757704
kg $\mathregular{CO_{2}}$ eq without RE,Consumption as usual,Rebound effect,4.071362466
kg $\mathregular{CO_{2}}$ eq without RE,Consumption as usual,Rebound effect,4.671269121
kg $\mathregular{CO_{2}}$ eq without RE,Consumption as usual,Rebound effect,6.076452647
CAD,Consumption as usual,Rebound effect,26.87451268
CAD,Consumption as usual,Rebound effect,21.85092208
CAD,Consumption as usual,Rebound effect,24.07842838
CAD,Consumption as usual,Rebound effect,20.29284117
CAD,Consumption as usual,Rebound effect,21.89559359
CAD,Consumption as usual,Rebound effect,20.94799569
CAD,Consumption as usual,Rebound effect,21.63903811
CAD,Consumption as usual,Rebound effect,20.94207706
CAD,Consumption as usual,Rebound effect,23.5050776
CAD,Consumption as usual,Rebound effect,23.70065242
CAD,Consumption as usual,Rebound effect,26.70292628
CAD,Consumption as usual,Rebound effect,21.41917763
CAD,Consumption as usual,Rebound effect,22.18663019
CAD,Consumption as usual,Rebound effect,23.01953163
CAD,Consumption as usual,Rebound effect,20.54439275
CAD,Consumption as usual,Rebound effect,22.02417392
CAD,Consumption as usual,Rebound effect,24.09885492
CAD,Consumption as usual,Rebound effect,20.86860542
CAD,Consumption as usual,Rebound effect,21.80083833
CAD,Consumption as usual,Rebound effect,22.90283399
CAD,Consumption as usual,Rebound effect,22.43700328
CAD,Consumption as usual,Rebound effect,19.41908705
CAD,Consumption as usual,Rebound effect,20.83089634
CAD,Consumption as usual,Rebound effect,22.28727396
CAD,Consumption as usual,Rebound effect,21.15466196
CAD,Consumption as usual,Rebound effect,22.08513025
CAD,Consumption as usual,Rebound effect,19.38087423
CAD,Consumption as usual,Rebound effect,19.66787289
CAD,Consumption as usual,Rebound effect,20.88938697
CAD,Consumption as usual,Rebound effect,24.39396149
kg $\mathregular{CO_{2}}$ eq with RE,Consumption as usual,Rebound effect,3.82173852
kg $\mathregular{CO_{2}}$ eq with RE,Consumption as usual,Rebound effect,5.291025471
kg $\mathregular{CO_{2}}$ eq with RE,Consumption as usual,Rebound effect,3.866927695
kg $\mathregular{CO_{2}}$ eq with RE,Consumption as usual,Rebound effect,4.432520424
kg $\mathregular{CO_{2}}$ eq with RE,Consumption as usual,Rebound effect,4.164424809
kg $\mathregular{CO_{2}}$ eq with RE,Consumption as usual,Rebound effect,3.585621662
kg $\mathregular{CO_{2}}$ eq with RE,Consumption as usual,Rebound effect,5.192797696
kg $\mathregular{CO_{2}}$ eq with RE,Consumption as usual,Rebound effect,4.739238914
kg $\mathregular{CO_{2}}$ eq with RE,Consumption as usual,Rebound effect,3.472023989
kg $\mathregular{CO_{2}}$ eq with RE,Consumption as usual,Rebound effect,4.558936262
kg $\mathregular{CO_{2}}$ eq with RE,Consumption as usual,Rebound effect,4.14489282
kg $\mathregular{CO_{2}}$ eq with RE,Consumption as usual,Rebound effect,3.898098045
kg $\mathregular{CO_{2}}$ eq with RE,Consumption as usual,Rebound effect,4.949478454
kg $\mathregular{CO_{2}}$ eq with RE,Consumption as usual,Rebound effect,4.771884253
kg $\mathregular{CO_{2}}$ eq with RE,Consumption as usual,Rebound effect,3.679143123
kg $\mathregular{CO_{2}}$ eq with RE,Consumption as usual,Rebound effect,4.625014642
kg $\mathregular{CO_{2}}$ eq with RE,Consumption as usual,Rebound effect,5.113744127
kg $\mathregular{CO_{2}}$ eq with RE,Consumption as usual,Rebound effect,5.13428871
kg $\mathregular{CO_{2}}$ eq with RE,Consumption as usual,Rebound effect,4.149897998
kg $\mathregular{CO_{2}}$ eq with RE,Consumption as usual,Rebound effect,4.434855009
kg $\mathregular{CO_{2}}$ eq with RE,Consumption as usual,Rebound effect,3.832839269
kg $\mathregular{CO_{2}}$ eq with RE,Consumption as usual,Rebound effect,4.514275589
kg $\mathregular{CO_{2}}$ eq with RE,Consumption as usual,Rebound effect,4.327175167
kg $\mathregular{CO_{2}}$ eq with RE,Consumption as usual,Rebound effect,4.819394899
kg $\mathregular{CO_{2}}$ eq with RE,Consumption as usual,Rebound effect,4.147945881
kg $\mathregular{CO_{2}}$ eq with RE,Consumption as usual,Rebound effect,4.886952752
kg $\mathregular{CO_{2}}$ eq with RE,Consumption as usual,Rebound effect,4.16431545
kg $\mathregular{CO_{2}}$ eq with RE,Consumption as usual,Rebound effect,4.025712202
kg $\mathregular{CO_{2}}$ eq with RE,Consumption as usual,Rebound effect,4.098565985
kg $\mathregular{CO_{2}}$ eq with RE,Consumption as usual,Rebound effect,3.743862558
