,"Final consumption expenditure by households, CA, kgCO2eq"
Paddy rice,0.0
Wheat,0.0
Cereal grains nec,0.0
"Vegetables, fruit, nuts",2695914235.487848
Oil seeds,723588669.6714497
"Sugar cane, sugar beet",0.0
Plant-based fibers,0.0
Crops nec,1347535355.0951452
Cattle,1420871234.0220227
Pigs,69428681.8094617
Poultry,34362631.23089416
Meat animals nec,489359353.70538574
Animal products nec,1202029063.6232102
Raw milk,17752132.564258214
"Wool, silk-worm cocoons",0.0
Manure (conventional treatment),0.0
Manure (biogas treatment),0.0
"Products of forestry, logging and related services (02)",400498669.6873316
Fish and other fishing products; services incidental of fishing (05),175851971.4715047
Anthracite,0.0
Coking Coal,0.0
Other Bituminous Coal,0.0
Sub-Bituminous Coal,0.0
Patent Fuel,0.0
Lignite/Brown Coal,6626318.325651632
BKB/Peat Briquettes,15.492960270807796
Peat,246.85497263115585
"Crude petroleum and services related to crude oil extraction, excluding surveying",0.0
"Natural gas and services related to natural gas extraction, excluding surveying",28040092516.313477
Natural Gas Liquids,0.0
Other Hydrocarbons,0.0
Uranium and thorium ores (12),0.0
Iron ores,0.0
Copper ores and concentrates,0.0
Nickel ores and concentrates,0.0
Aluminium ores and concentrates,0.0
Precious metal ores and concentrates,0.0
"Lead, zinc and tin ores and concentrates",0.0
Other non-ferrous metal ores and concentrates,0.0
Stone,5919419.893523881
Sand and clay,50453090.53849872
"Chemical and fertilizer minerals, salt and other mining and quarrying products n.e.c.",58877724.034112945
Products of meat cattle,7230617342.384631
Products of meat pigs,485637280.59381974
Products of meat poultry,1155186225.3453918
Meat products nec,1654717044.8671088
products of Vegetable oils and fats,0.0
Dairy products,6429691296.227272
Processed rice,32487975.308160733
Sugar,214004452.13063264
Food products nec,10726713898.344585
Beverages,4702256856.168177
Fish products,982551725.1785339
Tobacco products (16),528164703.30740434
Textiles (17),4897053989.251299
Wearing apparel; furs (18),4141427249.0511003
Leather and leather products (19),1944342041.2931654
Wood and products of wood and cork (except furniture); articles of straw and plaiting materials (20),225584789.99877197
"Wood material for treatment, Re-processing of secondary wood material into new wood material",0.0
Pulp,0.0
"Secondary paper for treatment, Re-processing of secondary paper into new pulp",0.0
Paper and paper products,3167060330.140035
Printed matter and recorded media (22),2354202594.1915646
Coke Oven Coke,0.0
Gas Coke,0.0
Coal Tar,0.0
Motor Gasoline,19237935141.964592
Aviation Gasoline,1901.4174329548796
Gasoline Type Jet Fuel,1578.3179516656048
Kerosene Type Jet Fuel,148262.51822332173
Kerosene,953468110.5248244
Gas/Diesel Oil,2941596492.107827
Heavy Fuel Oil,245830959.44092396
Refinery Gas,0.0
Liquefied Petroleum Gases (LPG),351531216.0682361
Refinery Feedstocks,0.0
Ethane,0.0
Naphtha,0.0
White Spirit & SBP,0.0
Lubricants,0.0
Bitumen,0.0
Paraffin Waxes,6.959878031365151
Petroleum Coke,0.0
Non-specified Petroleum Products,0.0
Nuclear fuel,0.0
"Plastics, basic",0.0
"Secondary plastic for treatment, Re-processing of secondary plastic into new plastic",0.0
N-fertiliser,57740143.39342081
P- and other fertiliser,347446789.3655941
Chemicals nec,15014448199.536062
Charcoal,182.4466259935566
Additives/Blending Components,0.0
Biogasoline,0.0
Biodiesels,0.0
Other Liquid Biofuels,0.0
Rubber and plastic products (25),3452118470.270293
Glass and glass products,1086612411.4167573
"Secondary glass for treatment, Re-processing of secondary glass into new glass",0.0
Ceramic goods,748410802.2842975
"Bricks, tiles and construction products, in baked clay",0.0
"Cement, lime and plaster",13699318.066694852
"Ash for treatment, Re-processing of ash into clinker",0.0
Other non-metallic mineral products,571239022.0269617
Basic iron and steel and of ferro-alloys and first products thereof,63861949.472038925
"Secondary steel for treatment, Re-processing of secondary steel into new steel",0.0
Precious metals,23048509.376702473
"Secondary preciuos metals for treatment, Re-processing of secondary preciuos metals into new preciuos metals",0.0
Aluminium and aluminium products,18516324.338728584
"Secondary aluminium for treatment, Re-processing of secondary aluminium into new aluminium",0.0
"Lead, zinc and tin and products thereof",0.0
"Secondary lead for treatment, Re-processing of secondary lead into new lead",0.0
Copper products,0.0
"Secondary copper for treatment, Re-processing of secondary copper into new copper",0.0
Other non-ferrous metal products,16973950.524744708
"Secondary other non-ferrous metals for treatment, Re-processing of secondary other non-ferrous metals into new other non-ferrous metals",0.0
Foundry work services,1347326.6983404404
"Fabricated metal products, except machinery and equipment (28)",1749944363.1894076
Machinery and equipment n.e.c. (29),6406925147.892624
Office machinery and computers (30),1029507837.875296
Electrical machinery and apparatus n.e.c. (31),1631087784.967846
"Radio, television and communication equipment and apparatus (32)",4485854923.3775625
"Medical, precision and optical instruments, watches and clocks (33)",2768867109.553526
"Motor vehicles, trailers and semi-trailers (34)",16129600179.37368
Other transport equipment (35),919222619.6750921
Furniture; other manufactured goods n.e.c. (36),12412004111.661634
Secondary raw materials,0.0
"Bottles for treatment, Recycling of bottles by direct reuse",0.0
Electricity by coal,24229094213.551838
Electricity by gas,6088447221.780864
Electricity by nuclear,256225866.7333524
Electricity by hydro,910613501.608881
Electricity by wind,23750288.18811194
Electricity by petroleum and other oil derivatives,1860901977.419491
Electricity by biomass and waste,33589247.12782277
Electricity by solar photovoltaic,1050708.274732484
Electricity by solar thermal,0.0
"Electricity by tide, wave, ocean",328308.004770204
Electricity by Geothermal,0.0
Electricity nec,0.0
Transmission services of electricity,323122209.0261378
Distribution and trade services of electricity,1598292055.9722242
Coke oven gas,0.0
Blast Furnace Gas,0.0
Oxygen Steel Furnace Gas,0.0
Gas Works Gas,0.004781097337717738
Biogas,0.0
Distribution services of gaseous fuels through mains,1275579396.9560444
Steam and hot water supply services,0.0
"Collected and purified water, distribution services of water (41)",953672909.7035564
Construction work (45),29888445.579073843
"Secondary construction material for treatment, Re-processing of secondary construction material into aggregates",0.0
"Sale, maintenance, repair of motor vehicles, motor vehicles parts, motorcycles, motor cycles parts and accessoiries",1967491936.9557009
Retail trade services of motor fuel,55256616.24983399
"Wholesale trade and commission trade services, except of motor vehicles and motorcycles (51)",50259925.676724136
"Retail  trade services, except of motor vehicles and motorcycles; repair services of personal and household goods (52)",4735747659.58494
Hotel and restaurant services (55),27948833493.07188
Railway transportation services,350818104.1562253
Other land transportation services,1363939052.4169993
Transportation services via pipelines,344086771.0804073
Sea and coastal water transportation services,1279363385.767664
Inland water transportation services,3914302759.2908263
Air transport services (62),11371334901.236889
Supporting and auxiliary transport services; travel agency services (63),1750167185.9706855
Post and telecommunication services (64),1758687085.1036806
"Financial intermediation services, except insurance and pension funding services (65)",5534698134.967858
"Insurance and pension funding services, except compulsory social security services (66)",2504608804.5533566
Services auxiliary to financial intermediation (67),2917702263.275648
Real estate services (70),18493853477.859116
Renting services of machinery and equipment without operator and of personal and household goods (71),907603322.0408131
Computer and related services (72),467608492.12627614
Research and development services (73),0.0
Other business services (74),400175152.1866958
Public administration and defence services; compulsory social security services (75),183891325.85747135
Education services (80),2311533832.017844
Health and social work services (85),3116865257.025718
Food waste for treatment: incineration,7264691.783060979
Paper waste for treatment: incineration,8181306.503417063
Plastic waste for treatment: incineration,10038825.302916043
Intert/metal waste for treatment: incineration,8742216.864400728
Textiles waste for treatment: incineration,4242102.209280299
Wood waste for treatment: incineration,1403858.553626348
Oil/hazardous waste for treatment: incineration,1056553.2722080632
Food waste for treatment: biogasification and land application,0.38796281216200335
Paper waste for treatment: biogasification and land application,209.863068428487
Sewage sludge for treatment: biogasification and land application,0.0
Food waste for treatment: composting and land application,36478460.73827566
Paper and wood waste for treatment: composting and land application,9574912.048549324
Food waste for treatment: waste water treatment,37754772.43472093
Other waste for treatment: waste water treatment,67534314.96218447
Food waste for treatment: landfill,577827995.35656
Paper for treatment: landfill,201627391.84736136
Plastic waste for treatment: landfill,47788485.46430164
Inert/metal/hazardous waste for treatment: landfill,98416784.61130032
Textiles waste for treatment: landfill,23127640.37296308
Wood waste for treatment: landfill,10924115.056142101
Membership organisation services n.e.c. (91),89871364.73264904
"Recreational, cultural and sporting services (92)",8562374487.543845
Other services (93),1671184488.0972598
Private households with employed persons (95),185395745.9807337
Extra-territorial organizations and bodies,0.0
